Nº: 1 - Data: 17-05-2017 - Produto: Creatina Creapure 400gr - Probiótica 
Nº: 2 - Data: 17-05-2017 - Produto: L Carnitine 2000mg (400ml) - Probiótica 
Nº: 3 - Data: 17-05-2017 - Produto: L-carnitine 120caps - Probiótica 
Nº: 4 - Data: 17-05-2017 - Produto: 100% Casein Protein 900g - Probiótica 
Nº: 5 - Data: 17-05-2017 - Produto: Waxy Maize 1400g - Probiótica 
Nº: 6 - Data: 17-05-2017 - Produto: Creatina Pura 100g - Probiótica 
Nº: 7 - Data: 17-05-2017 - Produto: Creatina Pura 300g - Probiótica 
Nº: 8 - Data: 17-05-2017 - Produto: Creatina Pura 180caps -Probiótica 
Nº: 9 - Data: 17-05-2017 - Produto: Massa 3200 anticatabolic 1680g -Probiótica 
Nº: 10 - Data: 17-05-2017 - Produto: Rx Pro Thermogenic 1224g - Probiótica 
Nº: 11 - Data: 17-05-2017 - Produto: IsoPro Whey 900g - Probiótica 
Nº: 12 - Data: 17-05-2017 - Produto: 5 Whey Protein 900g - Probiótica 
Nº: 13 - Data: 17-05-2017 - Produto: Whey NO2 Micelar (900g) - Probiótica 
Nº: 14 - Data: 17-05-2017 - Produto: 100% Pure Whey Protein (900g) - Probiótica 
Nº: 15 - Data: 17-05-2017 - Produto: 3 Whey Protein 900g - Probiótica 
Nº: 16 - Data: 17-05-2017 - Produto: Whey Bar caixa com 24 unidades de 40g - Probiótica 
Nº: 17 - Data: 17-05-2017 - Produto: Carb Up Gel Super formula 10 sachês - Probiótica 
Nº: 18 - Data: 17-05-2017 - Produto: Carb up 800g - Probiótica 
Nº: 19 - Data: 17-05-2017 - Produto: Thermo Shake Diet 400g - Probiótica 
Nº: 20 - Data: 17-05-2017 - Produto: Xplode Nitric Oxide 120caps - Probiótica 
Nº: 21 - Data: 17-05-2017 - Produto: Ripp Abs 120caps - Probiótica 
Nº: 22 - Data: 17-05-2017 - Produto: Megabolic Super NO2 30packs - Probiótica 
Nº: 23 - Data: 17-05-2017 - Produto: Monster Nitro Pack NO2 44packs - Probiótica 
Nº: 24 - Data: 17-05-2017 - Produto: Amino Power Plus 60tbs - Probiótica 
Nº: 25 - Data: 17-05-2017 - Produto: Amino Power Plus 150tbs - Probiótica 
Nº: 26 - Data: 17-05-2017 - Produto: Amino Power Plus 300tbs - Probiótica 
Nº: 27 - Data: 17-05-2017 - Produto: Monster Extreme Black 44packs - Probiótica 
Nº: 28 - Data: 17-05-2017 - Produto: Thermogenic Extreme Black 120caps - Probiótica 
Nº: 29 - Data: 17-05-2017 - Produto: Bcaa Black 200g - Probiótica 
Nº: 30 - Data: 17-05-2017 - Produto: Massa Monster Black 1500g - Probiótica 
Nº: 31 - Data: 17-05-2017 - Produto: Massa Monster Black 3000g - Probiótica 
Nº: 32 - Data: 17-05-2017 - Produto: Carb Up Black Gel 10 sachês - Probiótica 
Nº: 33 - Data: 17-05-2017 - Produto: Whey Micellar 900g - Probiótica 
Nº: 34 - Data: 17-05-2017 - Produto: Liquid Amino 480ml - Probiótica 
Nº: 35 - Data: 17-05-2017 - Produto: Massa Nitro 1,4kg - Probiótica 
Nº: 36 - Data: 17-05-2017 - Produto: Massa Nitro 3Kg- Probiótica 
Nº: 37 - Data: 17-05-2017 - Produto: Dextrose 1000g - Probiótica 
Nº: 38 - Data: 17-05-2017 - Produto: Bcaa 2400 Millennium 60tbs - Probiótica 
Nº: 39 - Data: 17-05-2017 - Produto: Bcaa 2400 Millenium 120tbs - Probiótica 
Nº: 40 - Data: 17-05-2017 - Produto: L-Glutamina 120g - Probiótica 
Nº: 41 - Data: 17-05-2017 - Produto: L-Glutamina 300g - Probiótica 
Nº: 42 - Data: 17-05-2017 - Produto: Zma Power 90caps - Probiótica 
Nº: 43 - Data: 17-05-2017 - Produto: Chromium Picolinate 100caps - Probiótica 
Nº: 44 - Data: 17-05-2017 - Produto: L- Glutamina 300g- New Millen 
Nº: 45 - Data: 17-05-2017 - Produto: Whey Micellar Casein 900g - New Millen 
Nº: 46 - Data: 17-05-2017 - Produto: C4 Beta Pump 225g - New Millen  
Nº: 47 - Data: 17-05-2017 - Produto: Iron Nitro Pack 44packs - New Millen 
Nº: 48 - Data: 17-05-2017 - Produto: Thermo 300 Cafeina 120caps - New Millen 
Nº: 49 - Data: 17-05-2017 - Produto: CL Óleo de Cártamo 120caps - New Millen 
Nº: 50 - Data: 17-05-2017 - Produto: Creatina Monohidratada 120caps - New Millen 
Nº: 51 - Data: 17-05-2017 - Produto: Creatina Monohidratada 150g - New Millen 
Nº: 52 - Data: 17-05-2017 - Produto: Creatina Monohidratada 300g - New Millen 
Nº: 53 - Data: 17-05-2017 - Produto: NO2 Expand Oxido Nitrico 120caps - New Millen 
Nº: 54 - Data: 17-05-2017 - Produto: Hmb 2400mg 120caps - New Millen 
Nº: 55 - Data: 17-05-2017 - Produto: 100% Whey Protein 900g - New Millen 
Nº: 56 - Data: 17-05-2017 - Produto: Iron Man Protein Bar 12 Unidades - New Millen  
Nº: 57 - Data: 17-05-2017 - Produto: Whey 3W Nitro2 900g - New Millen 
Nº: 58 - Data: 17-05-2017 - Produto: Iso Whey Excell 90 Protein 900g - New Millen 
Nº: 59 - Data: 17-05-2017 - Produto: Mass 3W Premium 7200 refil 1500g - New Millen 
Nº: 60 - Data: 17-05-2017 - Produto: Mass 3W Premium 14400 refil 3000g - New Millen 
Nº: 61 - Data: 17-05-2017 - Produto: Mass 3400 Anticatabolic 3000g - New Millen 
Nº: 62 - Data: 17-05-2017 - Produto: Mass 3400 Anticatabolic 1500g - New Millen 
Nº: 63 - Data: 17-05-2017 - Produto: Waxy Maize Pós Treino 1000g - New Millen 
Nº: 64 - Data: 17-05-2017 - Produto: Caffeine Thermo Fast 90caps - New Millen 
Nº: 65 - Data: 17-05-2017 - Produto: MaltoDextrina 1000g - New Millen 
Nº: 66 - Data: 17-05-2017 - Produto: Cromo Picolinato 100caps - New Millen 
Nº: 67 - Data: 17-05-2017 - Produto: Albumix 120tbs - Integralmédica 
Nº: 68 - Data: 17-05-2017 - Produto: Albumix 240tbs - Integralmédica 
Nº: 69 - Data: 17-05-2017 - Produto: Bcaa Powder 300g - Integralmédica 
Nº: 70 - Data: 17-05-2017 - Produto: Amino Bcaa Top 3800mg 120caps - Integralmédica 
Nº: 71 - Data: 17-05-2017 - Produto: Amino Bcaa Top 3800mg 240caps - Integralmédica 
Nº: 72 - Data: 17-05-2017 - Produto: Creatina Hardcore Reload 150g - Integralmédica 
Nº: 73 - Data: 17-05-2017 - Produto: Creatina Hardcore Reload 300g - Integralmédica 
Nº: 74 - Data: 17-05-2017 - Produto: Iso Whey Protein Zerocarb 907g - Integralmédica 
Nº: 75 - Data: 17-05-2017 - Produto: L-Carnetina 60caps - Integralmédica 
Nº: 76 - Data: 17-05-2017 - Produto: L-Drol 60caps - Integralmédica 
Nº: 77 - Data: 17-05-2017 - Produto: Nutri Mass 7000 refil 1500g - Integralmédica 
Nº: 78 - Data: 17-05-2017 - Produto: Nutri Mass 15000 3000g - Integralmédica 
Nº: 79 - Data: 17-05-2017 - Produto: Nutri Whey refil 907g - Integralmédica 
Nº: 80 - Data: 17-05-2017 - Produto: Poliamino 38000 600ml - Integralmédica 
Nº: 81 - Data: 17-05-2017 - Produto: Super 100% whey Protein 907g - Integralmédica 
Nº: 82 - Data: 17-05-2017 - Produto: Super Whey Reforce refil 907g - Integralmédica 
Nº: 83 - Data: 17-05-2017 - Produto: Therma Pro Hardcore 60caps - Integralmédica 
Nº: 84 - Data: 17-05-2017 - Produto: Therma Pro Hardcore 120caps - Integralmédica 
Nº: 85 - Data: 17-05-2017 - Produto: Super 5w Whey Protein 907g - Integralmédica 
Nº: 86 - Data: 17-05-2017 - Produto: Bcaa Fix Darkness 120tbs - Integralmédica 
Nº: 87 - Data: 17-05-2017 - Produto: Bcaa Fix Darkness 400tbs - Integralmédica 
Nº: 88 - Data: 17-05-2017 - Produto: Gh - Testo 21packs - Integralmédica 
Nº: 89 - Data: 17-05-2017 - Produto: Mega Pack Hardcore 30packs - Integralmédica 
Nº: 90 - Data: 17-05-2017 - Produto: NOS Vasodilatador 160tbs - Integralmédica 
Nº: 91 - Data: 17-05-2017 - Produto: NeuroBooster 225g - Integralmédica 
Nº: 92 - Data: 17-05-2017 - Produto: Testo Fuel Darkness 120tbs - Integralmédica 
Nº: 93 - Data: 17-05-2017 - Produto: Amino Decanate 360g - MuscleMeds 
Nº: 94 - Data: 17-05-2017 - Produto: Animal Pak 30 packs - Universal 
Nº: 95 - Data: 17-05-2017 - Produto: Bcaa Complex 2200 Time Release 200tabs - Dymatize  
Nº: 96 - Data: 17-05-2017 - Produto: Bcaa Complex 2200 Time Release 400tabs - Dymatize 
Nº: 97 - Data: 17-05-2017 - Produto: Bcaa 1000 200caps - Optimum Nutrition 
Nº: 98 - Data: 17-05-2017 - Produto: Bcaa 1000 400caps - Optimum Nutrition 
Nº: 99 - Data: 17-05-2017 - Produto: Bcaa Pro 100caps - Universal 
Nº: 100 - Data: 17-05-2017 - Produto: Bcaa Stack 250gr - Universal 
Nº: 101 - Data: 17-05-2017 - Produto: Carnivor 1,753g - MuscleMeds 
Nº: 102 - Data: 17-05-2017 - Produto: Carnivor 909gr - MuscleMeds 
Nº: 103 - Data: 17-05-2017 - Produto: Carnivor Mass 2,772g - MuscleMeds 
Nº: 104 - Data: 17-05-2017 - Produto: Casein 100% Gold Standard 1814g - Optimum Nutrition 
Nº: 105 - Data: 17-05-2017 - Produto: Casein 100% Gold Standard 909g - Optimum Nutrition 
Nº: 106 - Data: 17-05-2017 - Produto: Creatina 120g - Universal 
Nº: 107 - Data: 17-05-2017 - Produto: Creatina 300g - Dymatize 
Nº: 108 - Data: 17-05-2017 - Produto: Creatina Powder 150g - Optimum Nutrition 
Nº: 109 - Data: 17-05-2017 - Produto: Creatina Powder 300g - Optimum Nutrition 
Nº: 110 - Data: 17-05-2017 - Produto: Daily Formula 100tbs - Universal 
Nº: 111 - Data: 17-05-2017 - Produto: Elite Whey Protein (2,268g) - Dymatize 
Nº: 112 - Data: 17-05-2017 - Produto: Elite Whey Protein (907g) - Dymatize 
Nº: 113 - Data: 17-05-2017 - Produto: Elite Gourmet 900g - Dymatize 
Nº: 114 - Data: 17-05-2017 - Produto: Gh Max 180tbs - Universal 
Nº: 115 - Data: 17-05-2017 - Produto: Glutamina Powder 150g - Optimum Nutrition 
Nº: 116 - Data: 17-05-2017 - Produto: Glutamina Powder 300g - Optimum Nutrition 
Nº: 117 - Data: 17-05-2017 - Produto: Gold Standard Whey 900g - Optimum Nutrition 
Nº: 118 - Data: 17-05-2017 - Produto: Gold Standard Whey 2270g - Optimum Nutrition 
Nº: 119 - Data: 17-05-2017 - Produto: Platinum Hydro Whey 790g - Optimum Nutrition 
Nº: 120 - Data: 17-05-2017 - Produto: Platinum Hydro Whey 1590g - Optimum Nutrition 
Nº: 121 - Data: 17-05-2017 - Produto: ISO 100 Hidrolyzed Whey 736g - Dymatize 
Nº: 122 - Data: 17-05-2017 - Produto: ISO 100 Hidrolyzed Whey 1361g - Dymatize 
Nº: 123 - Data: 17-05-2017 - Produto: Isofort 900g - Vitafor 
Nº: 124 - Data: 17-05-2017 - Produto: Isofort Bio Protein 2000g - Vitafor  
Nº: 125 - Data: 17-05-2017 - Produto: NOX3 180tbs - Universal 
Nº: 126 - Data: 17-05-2017 - Produto: Ômega For EPA/DHA 60caps - Vitafor 
Nº: 127 - Data: 17-05-2017 - Produto: Elite Primal 924g - Dymatize 
Nº: 128 - Data: 17-05-2017 - Produto: Ripped Fast 120caps - Universal 
Nº: 129 - Data: 17-05-2017 - Produto: Termo Plus 30 sachês - Vitafor 
Nº: 130 - Data: 17-05-2017 - Produto: Trac Hardcore 386g - MHP 
Nº: 131 - Data: 17-05-2017 - Produto: X Fit Trainer 226g - MHP 
Nº: 132 - Data: 17-05-2017 - Produto: XPel 20 sachês - MHP 
Nº: 133 - Data: 17-05-2017 - Produto: Accel Gel unid. - Pacific Health 
Nº: 134 - Data: 17-05-2017 - Produto: Accelerade 933g -Pacific Health 
Nº: 135 - Data: 17-05-2017 - Produto: Assault 522g - Muscle Pharm 
Nº: 136 - Data: 17-05-2017 - Produto: Bio Casein 900g - Performance  
Nº: 137 - Data: 17-05-2017 - Produto: Chromium Picolinate 90caps - VitaminLife 
Nº: 138 - Data: 17-05-2017 - Produto: Diarium 120 comprimidos - VitaminLife 
Nº: 139 - Data: 17-05-2017 - Produto: Endurox R4 1050g - Pacific Health 
Nº: 140 - Data: 17-05-2017 - Produto: Endurox R4 2100g Pacific Health 
Nº: 141 - Data: 17-05-2017 - Produto: Glyco Waxy Maize 2Kg - Performance 
Nº: 142 - Data: 17-05-2017 - Produto: Glutamina Science Recovery 300g - Performance 
Nº: 143 - Data: 17-05-2017 - Produto: GlutaLean 500g - Labrada 
Nº: 144 - Data: 17-05-2017 - Produto: Gu Energy Gel sachê 32g  - Gu Energy Labs 
Nº: 145 - Data: 17-05-2017 - Produto: Hemorage Black Ultra Concentrado 316.5g (50 doses) - Nutrex Research 
Nº: 146 - Data: 17-05-2017 - Produto: HMB 120caps - Arnold Nutrition 
Nº: 147 - Data: 17-05-2017 - Produto: Jet Fuse Nox (1066g) - Gat 
Nº: 148 - Data: 17-05-2017 - Produto: Joint Max 120caps - Arnold Nutrition 
Nº: 149 - Data: 17-05-2017 - Produto: L-Carnitine 1000mg 60caps - Arnold Nutrition 
Nº: 150 - Data: 17-05-2017 - Produto: Lean Tea 120caps - Arnold Nutrition 
Nº: 151 - Data: 17-05-2017 - Produto: Lipo Cut Hardcore 60 caps - Arnold Nutrition 
Nº: 152 - Data: 17-05-2017 - Produto: Lipo Cut X Hers 120caps - Arnold Nutrition 
Nº: 153 - Data: 17-05-2017 - Produto: Lipo Cut X 120caps - Arnold Nutrition 
Nº: 154 - Data: 17-05-2017 - Produto: Nitraflex 300g - Gat 
Nº: 155 - Data: 17-05-2017 - Produto: Oxylin Pro 90caps - Arnold Nutrition 
Nº: 156 - Data: 17-05-2017 - Produto: Power Crunch 12 unidades - BNRG 
Nº: 157 - Data: 17-05-2017 - Produto: Ripped Extreme Red 160caps - Atlhetica Nutrition 
Nº: 158 - Data: 17-05-2017 - Produto: Ripped Extreme Yellow 120caps - Atlhetica Nutrition 
Nº: 159 - Data: 17-05-2017 - Produto: Super Charge Extreme 800g - Labrada 
Nº: 160 - Data: 17-05-2017 - Produto: Super NO Expander 400g - Arnold Nutrition 
Nº: 161 - Data: 17-05-2017 - Produto: Thermo Fire Hardcore 120tbs - Arnold Nutrition 
Nº: 162 - Data: 17-05-2017 - Produto: Thermo Fire 120tbs - Arnold Nutrition 
Nº: 163 - Data: 17-05-2017 - Produto: VitaCa Óleo de Cártamo 120caps - Vitalab 
Nº: 164 - Data: 17-05-2017 - Produto: Vita Plate 60tbs - Arnold Nutrition 
Nº: 165 - Data: 17-05-2017 - Produto: Yellow Hornet 100caps - Stacker 2 
Nº: 166 - Data: 17-05-2017 - Produto: Zma Tst Booster 60caps - Arnold Nutrition 
Nº: 167 - Data: 17-05-2017 - Produto: Luva F1 - Rudel 
Nº: 168 - Data: 17-05-2017 - Produto: Luva F3 - Rudel 
Nº: 169 - Data: 17-05-2017 - Produto: Luva Sliper 2 - Rudel 
Nº: 170 - Data: 17-05-2017 - Produto: Luva Rubber - Rudel 
Nº: 171 - Data: 17-05-2017 - Produto: Luva NX - Rudel 
Nº: 172 - Data: 17-05-2017 - Produto: Luva KO - Rudel 
Nº: 173 - Data: 17-05-2017 - Produto: Cinturão Rudel Gladian 
Nº: 174 - Data: 17-05-2017 - Produto: Halter Strap - Rudel 
Nº: 175 - Data: 17-05-2017 - Produto: Tala Straps - Rudel 
Nº: 176 - Data: 17-05-2017 - Produto: Munhequeira - Rudel 
Nº: 177 - Data: 17-05-2017 - Produto: Luva Boxe 10 Oz - Rudel 
Nº: 178 - Data: 17-05-2017 - Produto: Luva Boxe 12 Oz - Rudel 
Nº: 179 - Data: 17-05-2017 - Produto: Luva Boxe 14 Oz - Rudel 
Nº: 180 - Data: 17-05-2017 - Produto: Luva Boxe 16 Oz - Rudel 
Nº: 181 - Data: 17-05-2017 - Produto: Protetor Bucal Dualcolor C/ Estojo - Rudel 
Nº: 182 - Data: 17-05-2017 - Produto: Protetor Bucal Dualcolor S/ Estojo - Rudel 
Nº: 183 - Data: 17-05-2017 - Produto: Protetor Bucal Duplo S/ Estojo - Rudel 
Nº: 184 - Data: 17-05-2017 - Produto: Protetor Bucal Duplo C/ Estojo - Rudel 
Nº: 185 - Data: 17-05-2017 - Produto: Protetor Bucal C/ Estojo - Rudel 
Nº: 186 - Data: 17-05-2017 - Produto: Protetor Bucal S/ Estojo - Rudel 
Nº: 187 - Data: 17-05-2017 - Produto: Bandagem Elastica Rudel 
Nº: 188 - Data: 17-05-2017 - Produto: Kit Resistência Muscular 
Nº: 189 - Data: 17-05-2017 - Produto: Colageno Hidrolisado 250g - Meissen 
Nº: 190 - Data: 17-05-2017 - Produto: Massa 3200 anticatabolic 3000g - Probiótica 
Nº: 191 - Data: 17-05-2017 - Produto: Creatina Creapure 150g - Probiótica 
Nº: 192 - Data: 17-05-2017 - Produto: Sbelt Whey Perfect Woman 900g - New Millen 
Nº: 193 - Data: 17-05-2017 - Produto: 3 Whey Protein 2Kg - Probiótica 
Nº: 194 - Data: 17-05-2017 - Produto: 100% Pure Whey Probiótica - 2Kg 
Nº: 195 - Data: 17-05-2017 - Produto: Oxylin Pro Powder 150g - Arnold Nutrition 
Nº: 196 - Data: 17-05-2017 - Produto: Oxylin Pro 7caps - Arnold Nutrition 
Nº: 197 - Data: 17-05-2017 - Produto: Glutamina Powder 600g - Optimum Nutrition 
Nº: 198 - Data: 17-05-2017 - Produto: Black Bee Cafeína 60caps - Probiótica 
Nº: 199 - Data: 17-05-2017 - Produto: Protein Complex Premium 1,8Kg + Coqueteleira grátis - New Millen 
Nº: 200 - Data: 17-05-2017 - Produto: Iso+ Whey Protein Isolada 900g - 4+ Nutrition 
Nº: 201 - Data: 17-05-2017 - Produto: Iron Whey Arnold Schwarzenegger Séries 900g - MusclePharm 
Nº: 202 - Data: 17-05-2017 - Produto: Glutamina Science Recovery 1000g - Performance 
Nº: 203 - Data: 17-05-2017 - Produto: Platinum Tri-celle CASEIN 1030g - Optimum Nutrition 
Nº: 204 - Data: 17-05-2017 - Produto: Gold Standard Whey 4,540g - Optimum Nutrition 
Nº: 205 - Data: 17-05-2017 - Produto: 1 MR Vortex 150g - BPI Sports 
Nº: 206 - Data: 17-05-2017 - Produto: Bcaa Complex 5050 Powder 300g Dymatize 
Nº: 207 - Data: 17-05-2017 - Produto: Amino Science BCAA Powder 300g - Performance 
Nº: 208 - Data: 17-05-2017 - Produto: Hiper Mass Gainer (3,0 Kg) - Atlhetica Evolution 
Nº: 209 - Data: 17-05-2017 - Produto: Omega3 1000mg Fish Oil 120caps - VitaminLife 
Nº: 210 - Data: 17-05-2017 - Produto: Zinco Chelado 90caps - VitaminLife 
Nº: 211 - Data: 17-05-2017 - Produto: Flaxseed Oil 1000mg Óleo linhaça 100caps - VitaminLife 
Nº: 212 - Data: 17-05-2017 - Produto: Evening Primose 500mg Oléo de Primula 45 caps - VitaminLife 
Nº: 213 - Data: 17-05-2017 - Produto: Testo HD 150g - Arnold Nutrition 
Nº: 214 - Data: 17-05-2017 - Produto: Lipo 6 Caffeine 60caps - Nutrex Research 
Nº: 215 - Data: 17-05-2017 - Produto: Vitamina C 1000 100 comprimidos - Sundown 
Nº: 216 - Data: 17-05-2017 - Produto: Vitamina E 400 100 comprimidos - Sundown 
Nº: 217 - Data: 17-05-2017 - Produto: Vitamia E 1000 30 comprimidos - Sundown 
Nº: 218 - Data: 17-05-2017 - Produto: Vitamina E 1000 50 comprimidos - Sundown 
Nº: 219 - Data: 17-05-2017 - Produto: OxyElite Pro 60caps - USP LABS   
Nº: 220 - Data: 17-05-2017 - Produto: B Complex 90caps - VitaminLife 
Nº: 221 - Data: 17-05-2017 - Produto: NOXI2 90tbs - Arnold Nutrition 
Nº: 222 - Data: 17-05-2017 - Produto: NOXI2 180tbs - Arnold Nutrition 
Nº: 223 - Data: 17-05-2017 - Produto: Gh Pro 100tbs - Arnold Nutrition 
Nº: 224 - Data: 17-05-2017 - Produto: Gh Pro 200tbs - Arnold Nutrition 
Nº: 225 - Data: 17-05-2017 - Produto: NO3 Beef 100tbs - Arnold Nutrition 
Nº: 226 - Data: 17-05-2017 - Produto: Chromium Picolinate 100caps - Universal 
Nº: 227 - Data: 17-05-2017 - Produto: Guaraná 120caps - Meissen 
Nº: 228 - Data: 17-05-2017 - Produto: Bcaa Concentrado AGE 120caps - Nutrilatina 
Nº: 229 - Data: 17-05-2017 - Produto: Bcaa Concentrado AGE 240caps - Nutrilatina 
Nº: 230 - Data: 17-05-2017 - Produto: Bcaa Ultraconcentrado AGE 120tbs - Nutrilatina 
Nº: 231 - Data: 17-05-2017 - Produto: Bcaa Ultraconcentrado AGE 240tbs - Nutrilatina 
Nº: 232 - Data: 17-05-2017 - Produto: Pro Bcaa Bound 60caps - Probiótica 
Nº: 233 - Data: 17-05-2017 - Produto: Power Bcaa 120caps - New Millen 
Nº: 234 - Data: 17-05-2017 - Produto: Pro Bcaa Bound 120caps - Probiótica 
Nº: 235 - Data: 17-05-2017 - Produto: Pro Bcaa Bound 200caps - Probiótica 
Nº: 236 - Data: 17-05-2017 - Produto: Bcaa Plus 800mg 120caps - Probiótica 
Nº: 237 - Data: 17-05-2017 - Produto: Bcaa Plus 800mg 240caps - Probiótica 
Nº: 238 - Data: 17-05-2017 - Produto: Brutal Force 240caps - New Millen 
Nº: 239 - Data: 17-05-2017 - Produto: Mass Beef Protein 1500g - New Millen 
Nº: 240 - Data: 17-05-2017 - Produto: Albumina 100% Natural 500g - New Millen 
Nº: 241 - Data: 17-05-2017 - Produto: Mass Beef Protein 3000g - New Millen 
Nº: 242 - Data: 17-05-2017 - Produto: Dextrose 1000g - New Millen 
Nº: 243 - Data: 17-05-2017 - Produto: Zma Cr 100caps - New Millen 
Nº: 244 - Data: 17-05-2017 - Produto: Beef Protein 900g - New Millen 
Nº: 245 - Data: 17-05-2017 - Produto: Albumina Maxxi 500g - New Millen 
Nº: 246 - Data: 17-05-2017 - Produto: AminoNO2 38000 Nitro 480ml - New Millen 
Nº: 247 - Data: 17-05-2017 - Produto: IGF 1 Hgh 150ml - New Millen  
Nº: 248 - Data: 17-05-2017 - Produto: Thermo Fuel 500ml - New Millen 
Nº: 249 - Data: 17-05-2017 - Produto: Leucine e Hmb Double 2000mg 120tbs - New Millen 
Nº: 250 - Data: 17-05-2017 - Produto: Creatina Ethyl Ester 60tbs - New Millen 
Nº: 251 - Data: 17-05-2017 - Produto: Iso Hydro Beef Protein 900g - New Millen 
Nº: 252 - Data: 17-05-2017 - Produto: L Carnetina Iron Man 500ml - New Millen 
Nº: 253 - Data: 17-05-2017 - Produto: Whey Protein Iron Man - 900g - New Millen 
Nº: 254 - Data: 17-05-2017 - Produto: Bcaa Powder Iron Man - 200g - New Millen 
Nº: 255 - Data: 17-05-2017 - Produto: Iron Man Instant Energy Gel 10 sachês - New Millen 
Nº: 256 - Data: 17-05-2017 - Produto: LipoFat Perfect Woman 120caps - New Millen  
Nº: 257 - Data: 17-05-2017 - Produto: Óleo de Peixe Ômega 3 60caps - New Millen 
Nº: 258 - Data: 17-05-2017 - Produto: Óleo de Primula 60caps - New Millen 
Nº: 259 - Data: 17-05-2017 - Produto: Sbelt Shake Diet 420g - New Millen 
Nº: 260 - Data: 17-05-2017 - Produto: Colageno em Pó 250g - New Millen 
Nº: 261 - Data: 17-05-2017 - Produto: Bcaa Power 4800 120tbs - New Millen 
Nº: 262 - Data: 17-05-2017 - Produto: Protein Complex Premium 900g - New Millen 
Nº: 263 - Data: 17-05-2017 - Produto: Kit Ganho de Peso 3 
Nº: 264 - Data: 17-05-2017 - Produto: Kit Definição Muscular 1 
Nº: 265 - Data: 17-05-2017 - Produto: Kit Ganho de Massa da Optimum Nutrition 
Nº: 266 - Data: 17-05-2017 - Produto: CarnPro 900g Probiotica  
Nº: 267 - Data: 17-05-2017 - Produto: Bcaa 1000 60caps Optimum Nutrition 
Nº: 268 - Data: 17-05-2017 - Produto: Isopure Low Carb (1361g) Natures Best 
Nº: 269 - Data: 17-05-2017 - Produto: Pasta Whey - Macarrão integral protéico 400g - Integralmédica 
Nº: 270 - Data: 17-05-2017 - Produto: Glutamina (300g) - Integralmédica 
Nº: 271 - Data: 17-05-2017 - Produto: Coqueteleira três doses - Integralmédica 
Nº: 272 - Data: 17-05-2017 - Produto: Coqueteleira (450ml) duas doses - Integralmédica 
Nº: 273 - Data: 17-05-2017 - Produto: Alert 8-Hour - 100 tablets - MHP 
Nº: 274 - Data: 17-05-2017 - Produto: BCAA 3300 Timed Release - 120 tabletes - MHP 
Nº: 275 - Data: 17-05-2017 - Produto: Albumina 500gr - Nutraforce 
Nº: 276 - Data: 17-05-2017 - Produto: Creatina Pura Micronizada 150gr - Nutraforce 
Nº: 277 - Data: 17-05-2017 - Produto: Creatina Pura Micronizada 300gr - Nutraforce 
Nº: 278 - Data: 17-05-2017 - Produto: Glutamina Pura 150gr - Nutraforce 
Nº: 279 - Data: 17-05-2017 - Produto: Thermo Force Black 120caps - Nutraforce 
Nº: 280 - Data: 17-05-2017 - Produto: Iso 100 Hydrolyzed Whey 2,257g - Dymatize 
Nº: 281 - Data: 17-05-2017 - Produto: Mass Fort 3500 Hipercalórico 3kg - Nutraforce 
Nº: 282 - Data: 17-05-2017 - Produto: Mass Fort 3500 Hipercalórico 1,5kg - Nutraforce 
Nº: 283 - Data: 17-05-2017 - Produto: Whey Protein 100% Pure 900gr - Nutraforce 
Nº: 284 - Data: 17-05-2017 - Produto: Mass Fort 20000 Hipercalórico 3kg - Nutraforce 
Nº: 285 - Data: 17-05-2017 - Produto: Mass Fort 10000 Hipercalórico 1,5kg - Nutraforce 
Nº: 286 - Data: 17-05-2017 - Produto: Whey Protein Force (Refil) 500gr - Nutraforce 
Nº: 287 - Data: 17-05-2017 - Produto: Glutamina Pura 300gr - Nutraforce 
Nº: 288 - Data: 17-05-2017 - Produto: Nitro Force 270gr Advanced Pump - Nutraforce 
Nº: 289 - Data: 17-05-2017 - Produto: NO X-Force (AAKG + Taurina) 120caps - Nutraforce 
Nº: 290 - Data: 17-05-2017 - Produto: Multimax Complex 90caps - Max Titanium 
Nº: 291 - Data: 17-05-2017 - Produto: M-Tor Leucine 100gr - Max Titanium 
Nº: 292 - Data: 17-05-2017 - Produto: Mass Titanium 17500 (3000g) - Max Titanium 
Nº: 293 - Data: 17-05-2017 - Produto: Total Whey NO2 2000g - Max Titanium 
Nº: 294 - Data: 17-05-2017 - Produto: Top Whey 3W 900g - Max Titanium 
Nº: 295 - Data: 17-05-2017 - Produto: Isofusion Premium Whey Isolate (726g) - Gaspari Nutrition 
Nº: 296 - Data: 17-05-2017 - Produto: Isofusion Premium Whey Isolate (1364g)- Gaspari Nutrition 
Nº: 297 - Data: 17-05-2017 - Produto: Myofusion Elite Protein Series 907gr - Gaspari Nutrition 
Nº: 298 - Data: 17-05-2017 - Produto: Super Pump 3.0 457gr - Gaspari Nutrition 
Nº: 299 - Data: 17-05-2017 - Produto: AminoLast 420gr - Gaspari Nutrition 
Nº: 300 - Data: 17-05-2017 - Produto: Matrix 2.0 907gr - Syntrax 
Nº: 301 - Data: 17-05-2017 - Produto: Nectar 907gr - Syntrax 
Nº: 302 - Data: 17-05-2017 - Produto: MyoFusion Advanced Protein 907gr - Gaspari Nutrition 
Nº: 303 - Data: 17-05-2017 - Produto: Zma 90caps  - Now Food 
Nº: 304 - Data: 17-05-2017 - Produto: 3 Whey Protein Force 900gr - Nutraforce 
Nº: 305 - Data: 17-05-2017 - Produto: 100% Pura Batata Doce Refil (1Kg) - Atlhetica Nutrition 
Nº: 306 - Data: 17-05-2017 - Produto: Methyldrene 25 - Cloma Pharma 
Nº: 307 - Data: 17-05-2017 - Produto: X TEA (20 sticks) - Atlhetica Nutrition 
Nº: 308 - Data: 17-05-2017 - Produto: L-Carnitine 2300 (480ml) - Atlhetica Evolution 
Nº: 309 - Data: 17-05-2017 - Produto: Whey Protein Pro Series Refil (1,8Kg) - Atlhetica Nutrition  
Nº: 310 - Data: 17-05-2017 - Produto: 4 Whey Tech - Evolution Series - (907g) 
Nº: 311 - Data: 17-05-2017 - Produto: FIRST Pasta de Amendoim com Whey Protein 500g - Santa Helena 
Nº: 312 - Data: 17-05-2017 - Produto: 4 Whey Tech - Refil - 1800g - Atlhetica Nutrition 
Nº: 313 - Data: 17-05-2017 - Produto: Top Whey Protein 3W Refil (1,8Kg) - MAX Titanium 
Nº: 314 - Data: 17-05-2017 - Produto: AmendoWhey 400gr - New Millen 
Nº: 315 - Data: 17-05-2017 - Produto: Energy Now 60 cápsulas - Atlhetica Nutrition 
Nº: 316 - Data: 17-05-2017 - Produto: Beta HD Extreme Intense (180g) - Atlhetica Nutrition 
Nº: 317 - Data: 17-05-2017 - Produto: Caffeinex 420mg (60 caps) - Atlhetica Nutrition 
Nº: 318 - Data: 17-05-2017 - Produto: Ella Collagen Caps (120 caps) - Atlhetica Nutrition 
Nº: 319 - Data: 17-05-2017 - Produto: Protein Premium Refil (1,8Kg) - Atlhetica Nutrition 
Nº: 320 - Data: 17-05-2017 - Produto: Dilatech (160 cáp) - Atlhetica Nutrition 
Nº: 321 - Data: 17-05-2017 - Produto: Kit Aumento de Massa Muscular II 
Nº: 322 - Data: 17-05-2017 - Produto: Kit Aumento de Massa Muscular III 
Nº: 323 - Data: 17-05-2017 - Produto: Kit Ganho de Peso IV 
Nº: 324 - Data: 17-05-2017 - Produto: 100% Pure Waxy Maize Refil (1Kg) - Atlhetica Nutrition 
Nº: 325 - Data: 17-05-2017 - Produto: 100% Pure Waxy Maize (2Kg) - Atlhetica Nutrition 
Nº: 326 - Data: 17-05-2017 - Produto: Cramp Block - Endurance Series (60 cápsulas) - Atlhetica Nutrition 
Nº: 327 - Data: 17-05-2017 - Produto: L-Carnitine 1000 (60 tabletes) - Atlhetica Nutrition 
Nº: 328 - Data: 17-05-2017 - Produto: 100% Pure Casein Protein (900g) - Atlhetica Nutrition 
Nº: 329 - Data: 17-05-2017 - Produto: Glutamine Micronized (1Kg) - Dymatize Nutrition 
Nº: 330 - Data: 17-05-2017 - Produto: Glutamine Micronized (300g) - Dymatize Nutrition 
Nº: 331 - Data: 17-05-2017 - Produto: Elasti Joint (350g) - Labrada 
Nº: 332 - Data: 17-05-2017 - Produto: Barra de proteína - Trio Pro 30 Vit (24 unidades) 
Nº: 333 - Data: 17-05-2017 - Produto: VO2 Barra de proteína (12 unidades) - Integralmédica 
Nº: 334 - Data: 17-05-2017 - Produto: W-Lady (907g) - Integralmedica 
Nº: 335 - Data: 17-05-2017 - Produto: Creatina Micronizada Monohidratada (300g) - Atlhetica Nutrition 
Nº: 336 - Data: 17-05-2017 - Produto: LA Linoleic Acid (120 cápsulas) - Atlhetica Nutrition 
Nº: 337 - Data: 17-05-2017 - Produto: Complete Multi-Vit (100 tabletes) - Atlhetica Nutrition 
Nº: 338 - Data: 17-05-2017 - Produto: Coqueteleira com Blender (600ml) - Integralmédica 
Nº: 339 - Data: 17-05-2017 - Produto: Coqueteleira Rosa Duas Doses (400ml) - Integralmédica 
Nº: 340 - Data: 17-05-2017 - Produto: Coqueteleira Neon Blender (600ml) - Atlhetica Nutrition 
Nº: 341 - Data: 17-05-2017 - Produto: Iso-X (907g) - Integralmédica 
Nº: 342 - Data: 17-05-2017 - Produto: Bcaa 2400 (100 cápsulas) - Max Titanium 
Nº: 343 - Data: 17-05-2017 - Produto: Bcaa 2400 (200 cápsulas) - Max Titanium 
Nº: 344 - Data: 17-05-2017 - Produto: Bcaa Fix Darkness (240 tabletes) - Integralmédica 
Nº: 345 - Data: 17-05-2017 - Produto: Kit Ganho de Peso 5 
Nº: 346 - Data: 17-05-2017 - Produto: Collagen Diet (200g) - Atlhetica Nutrition 
Nº: 347 - Data: 17-05-2017 - Produto: Maltodextrina 1Kg - Atlhetica Nutrition 
Nº: 348 - Data: 17-05-2017 - Produto: Carnivor Protein Bar Unidade (91g) - Muscle Meds 
Nº: 349 - Data: 17-05-2017 - Produto: Protein Crisp Bar (Caixa com 12 unidades) - Integralmedica 
Nº: 350 - Data: 17-05-2017 - Produto: Choko Crunch Protein Meio Amargo Unidade (40g) - Probiótica 
Nº: 351 - Data: 17-05-2017 - Produto: Repor Salt (30 cápsulas) - Atlhetica Nutrition 
Nº: 352 - Data: 17-05-2017 - Produto: Bcaa Powder 2:1:1 (210g) - Atlhetica Nutrition 
Nº: 353 - Data: 17-05-2017 - Produto: Proplex (1,020Kg) - Atlhetica Nutrition 
Nº: 354 - Data: 17-05-2017 - Produto: Noxi Fusion (1100g) - Arnold Nutrition 
Nº: 355 - Data: 17-05-2017 - Produto: Super 3W Whey Protein - Integralmédica 
Nº: 356 - Data: 17-05-2017 - Produto: L-Carn Liquid (480ml) - Integralmedica 
Nº: 357 - Data: 17-05-2017 - Produto: Waximaize Energy (1,5Kg) - Integralmédica 
Nº: 358 - Data: 17-05-2017 - Produto: Colágeno (120 cápsulas) - Meissen 
Nº: 359 - Data: 17-05-2017 - Produto: Bcaa Science 500mg (200 tabletes mastigáveis) - Performance 
Nº: 360 - Data: 17-05-2017 - Produto: Bcaa Powder 2:1:1 (210g) - Atlhetica Nutrition  
Nº: 361 - Data: 17-05-2017 - Produto: Glutamax (20 sachês) - Vitafor 
Nº: 362 - Data: 17-05-2017 - Produto: Blend Whey (900g) - Vitafor 
Nº: 363 - Data: 17-05-2017 - Produto: Colagentek (Colágeno Hidrolisado) 30 sachês - Vitafor 
Nº: 364 - Data: 17-05-2017 - Produto: Collagen Liquid 474ml (Colágeno Hidrolisado) - Performance 
Nº: 365 - Data: 17-05-2017 - Produto: Femini Whey Protein (900g) - Max Titanium 
Nº: 366 - Data: 17-05-2017 - Produto: Power Crunch Protein Bar (Unidade) - BNRG 
Nº: 367 - Data: 17-05-2017 - Produto: Puro Whey 909g - Performance Nutrition 
Nº: 368 - Data: 17-05-2017 - Produto: Arnold 3D (300g) - Arnold Nutrition 
Nº: 369 - Data: 17-05-2017 - Produto: Caffeinex 420mg (60 cápsulas) - Atlhetica Nutrition 
Nº: 370 - Data: 17-05-2017 - Produto: Lipodrene (100 cápsulas) - Hi-Tech Pharmaceuticals 
Nº: 371 - Data: 17-05-2017 - Produto: Jet Fuel (120 cápsulas) - Gat 
Nº: 372 - Data: 17-05-2017 - Produto: Micellar (907g) - Syntrax 
Nº: 373 - Data: 17-05-2017 - Produto: Whey Shake (2270g) - Syntrax 
Nº: 374 - Data: 17-05-2017 - Produto: Ribose Powder (300g) - Performance 
Nº: 375 - Data: 17-05-2017 - Produto: Xtherm Black (60 cápsulas) - Probiótica 
Nº: 376 - Data: 17-05-2017 - Produto: Shred Thermax Science (90 tabletes) - Performance Nutrition 
Nº: 377 - Data: 17-05-2017 - Produto: Choco Cream Super Protein (24 unidades) - Trio 
Nº: 378 - Data: 17-05-2017 - Produto: L-Carnitine 1400 (480ml) - Atlhetica Nutrition 
Nº: 379 - Data: 17-05-2017 - Produto: Nutwhey - Creme de Avelã Proteico (200g) - Integralmédica 
Nº: 380 - Data: 17-05-2017 - Produto: ZMA (90 cápsulas) - Atlhetica Nutrition 
Nº: 381 - Data: 17-05-2017 - Produto: Bcaa 2 1 1 (210g) - Atlhetica Nutrition 
Nº: 382 - Data: 17-05-2017 - Produto: Bcaa Chewable Mastigável (200 tabletes) - Probiótica 
Nº: 383 - Data: 17-05-2017 - Produto: Ultrum Multivitamínico Mineral (100 tabletes) - Performence 
Nº: 384 - Data: 17-05-2017 - Produto: Pasta de Amendoim Integral Crocante (1kg) - El Shaddai 
Nº: 385 - Data: 17-05-2017 - Produto: Galão Body Size (2,2 litros) - Integralmédica 
Nº: 386 - Data: 17-05-2017 - Produto: Luva Palmex - Rudel 
Nº: 387 - Data: 17-05-2017 - Produto: BCAA Pro Series (120 cáp.) - Atlhetica Nutrition 
Nº: 388 - Data: 17-05-2017 - Produto: Barra de Proteína Quest Bar (60g) - Quest Nutrition 
Nº: 389 - Data: 17-05-2017 - Produto: Protein Crisp Bar (45g) - Integralmédica 
Nº: 390 - Data: 17-05-2017 - Produto: Whey Bar (40g) - Probiótica 
Nº: 391 - Data: 17-05-2017 - Produto: Zma Pro (90 cápsulas) - Universal Nutrition 
Nº: 392 - Data: 17-05-2017 - Produto: Bcaa Premium Series (120 tabletes) - New Millen 
Nº: 393 - Data: 17-05-2017 - Produto: Creatina  Titanium (300g) - Max Titanium 
Nº: 394 - Data: 17-05-2017 - Produto: Monster Extreme Black (22 Packs) - Probiótica 
Nº: 395 - Data: 17-05-2017 - Produto: Pasta de Amendoim Integral (1,05Kg) - Power One 
Nº: 396 - Data: 17-05-2017 - Produto: Pepto Fuel Hidrowhey (909g) - Performance 
Nº: 397 - Data: 17-05-2017 - Produto: Pasta de Amendoim Integral (com granulado de amendoim) 1,05Kg - Power One   
Nº: 398 - Data: 17-05-2017 - Produto: Nitric Max Amino Science (180 tabletes) - Performance 
Nº: 399 - Data: 17-05-2017 - Produto: Palatinose (300g) - Max Titanium 
Nº: 400 - Data: 17-05-2017 - Produto: BCAA 2:1:1 Premium (210g)  - New Millen 
Nº: 401 - Data: 17-05-2017 - Produto: Bio Whey Protein (909g) - Performance 
Nº: 402 - Data: 17-05-2017 - Produto: Sineflex (150 cáp) - Power Supplements 
Nº: 403 - Data: 17-05-2017 - Produto: Dilatex (152 cáps) - Power Supplements 
Nº: 404 - Data: 17-05-2017 - Produto: Berinjela (120 cápsulas) - Meissen 
Nº: 405 - Data: 17-05-2017 - Produto: Platinum BCAA 8:1:1 (200 tabletes) - Muscletech 
Nº: 406 - Data: 17-05-2017 - Produto: Platinum 100% Whey (907g) - Muscletech 
Nº: 407 - Data: 17-05-2017 - Produto: Pasta de amendoim com açúcar de coco (500g) - Power One 
Nº: 408 - Data: 17-05-2017 - Produto: Brigadeiro Proteico (500g) - Power One 
Nº: 409 - Data: 17-05-2017 - Produto: Natural Vegan (500g) - Max Titanium 
Nº: 410 - Data: 17-05-2017 - Produto: A-Bomb (243g) -MHP 
Nº: 411 - Data: 17-05-2017 - Produto: T_SEK 
Nº: 412 - Data: 17-05-2017 - Produto: Kit Emagrecedor Sineflex + T_Sek 
Nº: 413 - Data: 17-05-2017 - Produto: Kit Emagrecimento Feminino Atlhetica 
Nº: 414 - Data: 17-05-2017 - Produto: Leucina (150g) - Probiótica 
Nº: 415 - Data: 17-05-2017 - Produto: Kit Emagrecimento Feminino New Millen 
Nº: 416 - Data: 17-05-2017 - Produto: Somatodrol (30 comprimidos) - Iridium Labs 
Nº: 417 - Data: 17-05-2017 - Produto: Diurox (148g) - New Millen 
Nº: 418 - Data: 17-05-2017 - Produto: Maca Peruana (180 cáp.) - Nutrigold 
Nº: 419 - Data: 17-05-2017 - Produto: ZMA (90 Cápsulas) - Max Titanium 
Nº: 420 - Data: 17-05-2017 - Produto: Whey Pro (1Kg) - Max Titanium 
Nº: 421 - Data: 17-05-2017 - Produto: Sineflex Hardcore (150 cáp.) - Power Supplements 
Nº: 422 - Data: 17-05-2017 - Produto: Super Whey 100% Pure Refil 907g - Integralmédica 
Nº: 423 - Data: 17-05-2017 - Produto: Lipodrol Black (60 cáp.) - Integralmédica 
Nº: 424 - Data: 17-05-2017 - Produto: Creatina Titanium 150g - Max Titanium 
Nº: 425 - Data: 17-05-2017 - Produto: Kimera Termogênico (60 cápsulas) - Iridium Labs 
Nº: 426 - Data: 17-05-2017 - Produto: Bcaa Premium Series 240tbs - New Millen 
Nº: 427 - Data: 17-05-2017 - Produto: Nitro Tech 100% Whey Gold (1.13Kg) - Muscletech 
Nº: 428 - Data: 17-05-2017 - Produto: Black Bullet 60 cápsulas - Integralmédica 
Nº: 429 - Data: 17-05-2017 - Produto: Oxydrol (120 cápsulas) - Integralmédica 
Nº: 430 - Data: 17-05-2017 - Produto: Óleo de Coco Extravirgem 500ml - Copra 
Nº: 431 - Data: 17-05-2017 - Produto: Combo Massa Muscular Premium  
Nº: 432 - Data: 17-05-2017 - Produto: Combo Ganho de Peso Nutraforce 
Nº: 433 - Data: 17-05-2017 - Produto: Combo Max Ganho de Peso 
Nº: 434 - Data: 17-05-2017 - Produto: Combo Integral Ganho de Massa Muscular 
Nº: 435 - Data: 17-05-2017 - Produto: Coqueteleira Nutraforce (600ml) 
Nº: 436 - Data: 17-05-2017 - Produto: Combo Probiótica Massa Muscular 
Nº: 437 - Data: 17-05-2017 - Produto: Combo Emagrecimento + Definição 
Nº: 438 - Data: 17-05-2017 - Produto: Bcaa Drink 4:1:1 (280g) - Max Titanium 
Nº: 439 - Data: 17-05-2017 - Produto: Creatina (300g) Black Line - Optimum Nutrition 
Nº: 440 - Data: 17-05-2017 - Produto: Cloreto de magnésio P.A. (120 cápsulas) - Meissen 
Nº: 441 - Data: 17-05-2017 - Produto: Creatina Black Line (150g) - Optimum Nutrition 
Nº: 442 - Data: 17-05-2017 - Produto: Combo Ganho de Peso New Millen 
Nº: 443 - Data: 17-05-2017 - Produto: Combo Auxilio Ganho de Massa Muscular 
Nº: 444 - Data: 17-05-2017 - Produto: Combo Auxílio Ganho de Massa Muscular 
