Data: 16-05-2017  - 18:38 - 10 - Creatina Creapure 400gr - Probiótica 
Data: 16-05-2017  - 18:38 - 11 - L Carnitine 2000mg (400ml) - Probiótica 
Data: 16-05-2017  - 18:38 - 12 - L-carnitine 120caps - Probiótica 
Data: 16-05-2017  - 18:38 - 14 - 100% Casein Protein 900g - Probiótica 
Data: 16-05-2017  - 18:38 - 15 - Waxy Maize 1400g - Probiótica 
Data: 16-05-2017  - 18:38 - 16 - Creatina Pura 100g - Probiótica 
Data: 16-05-2017  - 18:38 - 17 - Creatina Pura 300g - Probiótica 
Data: 16-05-2017  - 18:38 - 18 - Creatina Pura 180caps -Probiótica 
Data: 16-05-2017  - 18:38 - 20 - Massa 3200 anticatabolic 1680g -Probiótica 
Data: 16-05-2017  - 18:38 - 21 - Rx Pro Thermogenic 1224g - Probiótica 
Data: 16-05-2017  - 18:38 - 23 - IsoPro Whey 900g - Probiótica 
Data: 16-05-2017  - 18:38 - 24 - 5 Whey Protein 900g - Probiótica 
Data: 16-05-2017  - 18:38 - 25 - Whey NO2 Micelar (900g) - Probiótica 
Data: 16-05-2017  - 18:38 - 26 - 100% Pure Whey Protein (900g) - Probiótica 
Data: 16-05-2017  - 18:38 - 27 - 3 Whey Protein 900g - Probiótica 
Data: 16-05-2017  - 18:38 - 28 - Whey Bar caixa com 24 unidades de 40g - Probiótica 
Data: 16-05-2017  - 18:38 - 29 - Carb Up Gel Super formula 10 sachês - Probiótica 
Data: 16-05-2017  - 18:38 - 30 - Carb up 800g - Probiótica 
Data: 16-05-2017  - 18:38 - 31 - Thermo Shake Diet 400g - Probiótica 
Data: 16-05-2017  - 18:38 - 32 - Xplode Nitric Oxide 120caps - Probiótica 
Data: 16-05-2017  - 18:38 - 36 - Ripp Abs 120caps - Probiótica 
Data: 16-05-2017  - 18:38 - 38 - Megabolic Super NO2 30packs - Probiótica 
Data: 16-05-2017  - 18:38 - 39 - Monster Nitro Pack NO2 44packs - Probiótica 
Data: 16-05-2017  - 18:38 - 40 - Amino Power Plus 60tbs - Probiótica 
Data: 16-05-2017  - 18:38 - 41 - Amino Power Plus 150tbs - Probiótica 
Data: 16-05-2017  - 18:38 - 42 - Amino Power Plus 300tbs - Probiótica 
Data: 16-05-2017  - 18:38 - 45 - Monster Extreme Black 44packs - Probiótica 
Data: 16-05-2017  - 18:38 - 46 - Thermogenic Extreme Black 120caps - Probiótica 
Data: 16-05-2017  - 18:38 - 47 - Bcaa Black 200g - Probiótica 
Data: 16-05-2017  - 18:38 - 48 - Massa Monster Black 1500g - Probiótica 
Data: 16-05-2017  - 18:38 - 49 - Massa Monster Black 3000g - Probiótica 
Data: 16-05-2017  - 18:38 - 50 - Carb Up Black Gel 10 sachês - Probiótica 
Data: 16-05-2017  - 18:38 - 51 - Whey Micellar 900g - Probiótica 
Data: 16-05-2017  - 18:38 - 53 - Liquid Amino 480ml - Probiótica 
Data: 16-05-2017  - 18:38 - 54 - Massa Nitro 1,4kg - Probiótica 
Data: 16-05-2017  - 18:38 - 55 - Massa Nitro 3Kg- Probiótica 
Data: 16-05-2017  - 18:38 - 57 - Dextrose 1000g - Probiótica 
Data: 16-05-2017  - 18:38 - 58 - Bcaa 2400 Millennium 60tbs - Probiótica 
Data: 16-05-2017  - 18:38 - 59 - Bcaa 2400 Millenium 120tbs - Probiótica 
Data: 16-05-2017  - 18:38 - 60 - L-Glutamina 120g - Probiótica 
Data: 16-05-2017  - 18:38 - 61 - L-Glutamina 300g - Probiótica 
Data: 16-05-2017  - 18:38 - 63 - Zma Power 90caps - Probiótica 
Data: 16-05-2017  - 18:38 - 64 - Chromium Picolinate 100caps - Probiótica 
Data: 16-05-2017  - 18:38 - 65 - L- Glutamina 300g- New Millen 
Data: 16-05-2017  - 18:38 - 70 - Whey Micellar Casein 900g - New Millen 
Data: 16-05-2017  - 18:38 - 71 - C4 Beta Pump 225g - New Millen  
Data: 16-05-2017  - 18:38 - 72 - Iron Nitro Pack 44packs - New Millen 
Data: 16-05-2017  - 18:38 - 73 - Thermo 300 Cafeina 120caps - New Millen 
Data: 16-05-2017  - 18:38 - 74 - CL Óleo de Cártamo 120caps - New Millen 
Data: 16-05-2017  - 18:38 - 75 - Creatina Monohidratada 120caps - New Millen 
Data: 16-05-2017  - 18:38 - 76 - Creatina Monohidratada 150g - New Millen 
Data: 16-05-2017  - 18:38 - 77 - Creatina Monohidratada 300g - New Millen 
Data: 16-05-2017  - 18:38 - 78 - NO2 Expand Oxido Nitrico 120caps - New Millen 
Data: 16-05-2017  - 18:38 - 79 - Hmb 2400mg 120caps - New Millen 
Data: 16-05-2017  - 18:38 - 80 - 100% Whey Protein 900g - New Millen 
Data: 16-05-2017  - 18:38 - 82 - Iron Man Protein Bar 12 Unidades - New Millen  
Data: 16-05-2017  - 18:38 - 84 - Whey 3W Nitro2 900g - New Millen 
Data: 16-05-2017  - 18:38 - 86 - Iso Whey Excell 90 Protein 900g - New Millen 
Data: 16-05-2017  - 18:38 - 87 - Mass 3W Premium 7200 refil 1500g - New Millen 
Data: 16-05-2017  - 18:38 - 88 - Mass 3W Premium 14400 refil 3000g - New Millen 
Data: 16-05-2017  - 18:38 - 89 - Mass 3400 Anticatabolic 3000g - New Millen 
Data: 16-05-2017  - 18:38 - 90 - Mass 3400 Anticatabolic 1500g - New Millen 
Data: 16-05-2017  - 18:38 - 91 - Waxy Maize Pós Treino 1000g - New Millen 
Data: 16-05-2017  - 18:38 - 92 - Caffeine Thermo Fast 90caps - New Millen 
Data: 16-05-2017  - 18:38 - 93 - MaltoDextrina 1000g - New Millen 
Data: 16-05-2017  - 18:38 - 94 - Cromo Picolinato 100caps - New Millen 
Data: 16-05-2017  - 18:38 - 95 - Albumix 120tbs - Integralmédica 
Data: 16-05-2017  - 18:38 - 96 - Albumix 240tbs - Integralmédica 
Data: 16-05-2017  - 18:38 - 97 - Bcaa Powder 300g - Integralmédica 
Data: 16-05-2017  - 18:38 - 98 - Amino Bcaa Top 3800mg 120caps - Integralmédica 
Data: 16-05-2017  - 18:38 - 99 - Amino Bcaa Top 3800mg 240caps - Integralmédica 
Data: 16-05-2017  - 18:38 - 100 - Creatina Hardcore Reload 150g - Integralmédica 
Data: 16-05-2017  - 18:38 - 101 - Creatina Hardcore Reload 300g - Integralmédica 
Data: 16-05-2017  - 18:38 - 102 - Iso Whey Protein Zerocarb 907g - Integralmédica 
Data: 16-05-2017  - 18:38 - 103 - L-Carnetina 60caps - Integralmédica 
Data: 16-05-2017  - 18:38 - 104 - L-Drol 60caps - Integralmédica 
Data: 16-05-2017  - 18:38 - 105 - Nutri Mass 7000 refil 1500g - Integralmédica 
Data: 16-05-2017  - 18:38 - 106 - Nutri Mass 15000 3000g - Integralmédica 
Data: 16-05-2017  - 18:38 - 107 - Nutri Whey refil 907g - Integralmédica 
Data: 16-05-2017  - 18:38 - 108 - Poliamino 38000 600ml - Integralmédica 
Data: 16-05-2017  - 18:38 - 110 - Super 100% whey Protein 907g - Integralmédica 
Data: 16-05-2017  - 18:38 - 111 - Super Whey Reforce refil 907g - Integralmédica 
Data: 16-05-2017  - 18:38 - 112 - Therma Pro Hardcore 60caps - Integralmédica 
Data: 16-05-2017  - 18:38 - 113 - Therma Pro Hardcore 120caps - Integralmédica 
Data: 16-05-2017  - 18:38 - 114 - Super 5w Whey Protein 907g - Integralmédica 
Data: 16-05-2017  - 18:38 - 115 - Bcaa Fix Darkness 120tbs - Integralmédica 
Data: 16-05-2017  - 18:38 - 116 - Bcaa Fix Darkness 400tbs - Integralmédica 
Data: 16-05-2017  - 18:38 - 118 - Gh - Testo 21packs - Integralmédica 
Data: 16-05-2017  - 18:38 - 120 - Mega Pack Hardcore 30packs - Integralmédica 
Data: 16-05-2017  - 18:38 - 121 - NOS Vasodilatador 160tbs - Integralmédica 
Data: 16-05-2017  - 18:38 - 122 - NeuroBooster 225g - Integralmédica 
Data: 16-05-2017  - 18:38 - 123 - Testo Fuel Darkness 120tbs - Integralmédica 
Data: 16-05-2017  - 18:38 - 124 - Amino Decanate 360g - MuscleMeds 
Data: 16-05-2017  - 18:38 - 127 - Animal Pak 30 packs - Universal 
Data: 16-05-2017  - 18:38 - 128 - Bcaa Complex 2200 Time Release 200tabs - Dymatize  
Data: 16-05-2017  - 18:38 - 129 - Bcaa Complex 2200 Time Release 400tabs - Dymatize 
Data: 16-05-2017  - 18:38 - 131 - Bcaa 1000 200caps - Optimum Nutrition 
Data: 16-05-2017  - 18:38 - 132 - Bcaa 1000 400caps - Optimum Nutrition 
Data: 16-05-2017  - 18:38 - 133 - Bcaa Pro 100caps - Universal 
Data: 16-05-2017  - 18:38 - 134 - Bcaa Stack 250gr - Universal 
Data: 16-05-2017  - 18:38 - 135 - Carnivor 1,753g - MuscleMeds 
Data: 16-05-2017  - 18:38 - 136 - Carnivor 909gr - MuscleMeds 
Data: 16-05-2017  - 18:38 - 137 - Carnivor Mass 2,772g - MuscleMeds 
Data: 16-05-2017  - 18:38 - 138 - Casein 100% Gold Standard 1814g - Optimum Nutrition 
Data: 16-05-2017  - 18:38 - 139 - Casein 100% Gold Standard 909g - Optimum Nutrition 
Data: 16-05-2017  - 18:38 - 140 - Creatina 120g - Universal 
Data: 16-05-2017  - 18:38 - 142 - Creatina 300g - Dymatize 
Data: 16-05-2017  - 18:38 - 143 - Creatina Powder 150g - Optimum Nutrition 
Data: 16-05-2017  - 18:38 - 144 - Creatina Powder 300g - Optimum Nutrition 
Data: 16-05-2017  - 18:38 - 145 - Daily Formula 100tbs - Universal 
Data: 16-05-2017  - 18:38 - 147 - Elite Whey Protein (2,268g) - Dymatize 
Data: 16-05-2017  - 18:38 - 148 - Elite Whey Protein (907g) - Dymatize 
Data: 16-05-2017  - 18:38 - 149 - Elite Gourmet 900g - Dymatize 
Data: 16-05-2017  - 18:38 - 150 - Gh Max 180tbs - Universal 
Data: 16-05-2017  - 18:38 - 152 - Glutamina Powder 150g - Optimum Nutrition 
Data: 16-05-2017  - 18:38 - 153 - Glutamina Powder 300g - Optimum Nutrition 
Data: 16-05-2017  - 18:38 - 154 - Gold Standard Whey 900g - Optimum Nutrition 
Data: 16-05-2017  - 18:38 - 155 - Gold Standard Whey 2270g - Optimum Nutrition 
Data: 16-05-2017  - 18:38 - 156 - Platinum Hydro Whey 790g - Optimum Nutrition 
Data: 16-05-2017  - 18:38 - 157 - Platinum Hydro Whey 1590g - Optimum Nutrition 
Data: 16-05-2017  - 18:38 - 158 - ISO 100 Hidrolyzed Whey 736g - Dymatize 
Data: 16-05-2017  - 18:38 - 159 - ISO 100 Hidrolyzed Whey 1361g - Dymatize 
Data: 16-05-2017  - 18:38 - 160 - Isofort 900g - Vitafor 
Data: 16-05-2017  - 18:38 - 161 - Isofort Bio Protein 2000g - Vitafor  
Data: 16-05-2017  - 18:38 - 166 - NOX3 180tbs - Universal 
Data: 16-05-2017  - 18:38 - 167 - Ômega For EPA/DHA 60caps - Vitafor 
Data: 16-05-2017  - 18:38 - 168 - Elite Primal 924g - Dymatize 
Data: 16-05-2017  - 18:38 - 174 - Ripped Fast 120caps - Universal 
Data: 16-05-2017  - 18:38 - 175 - Termo Plus 30 sachês - Vitafor 
Data: 16-05-2017  - 18:38 - 176 - Trac Hardcore 386g - MHP 
Data: 16-05-2017  - 18:38 - 180 - X Fit Trainer 226g - MHP 
Data: 16-05-2017  - 18:38 - 181 - XPel 20 sachês - MHP 
Data: 16-05-2017  - 18:38 - 184 - Accel Gel unid. - Pacific Health 
Data: 16-05-2017  - 18:38 - 185 - Accelerade 933g -Pacific Health 
Data: 16-05-2017  - 18:38 - 187 - Assault 522g - Muscle Pharm 
Data: 16-05-2017  - 18:38 - 194 - Bio Casein 900g - Performance  
Data: 16-05-2017  - 18:38 - 196 - Chromium Picolinate 90caps - VitaminLife 
Data: 16-05-2017  - 18:38 - 198 - Diarium 120 comprimidos - VitaminLife 
Data: 16-05-2017  - 18:38 - 199 - Endurox R4 1050g - Pacific Health 
Data: 16-05-2017  - 18:38 - 200 - Endurox R4 2100g Pacific Health 
Data: 16-05-2017  - 18:38 - 202 - Glyco Waxy Maize 2Kg - Performance 
Data: 16-05-2017  - 18:38 - 203 - Glutamina Science Recovery 300g - Performance 
Data: 16-05-2017  - 18:38 - 205 - GlutaLean 500g - Labrada 
Data: 16-05-2017  - 18:38 - 209 - Gu Energy Gel sachê 32g  - Gu Energy Labs 
Data: 16-05-2017  - 18:38 - 210 - Hemorage Black Ultra Concentrado 316.5g (50 doses) - Nutrex Research 
Data: 16-05-2017  - 18:38 - 211 - HMB 120caps - Arnold Nutrition 
Data: 16-05-2017  - 18:38 - 212 - Iso Whey Protein 909g - Performance 
Data: 16-05-2017  - 18:38 - 213 - Jet Fuse Nox (1066g) - Gat 
Data: 16-05-2017  - 18:38 - 214 - Joint Max 120caps - Arnold Nutrition 
Data: 16-05-2017  - 18:38 - 215 - L-Carnitine 1000mg 60caps - Arnold Nutrition 
Data: 16-05-2017  - 18:38 - 216 - Lean Tea 120caps - Arnold Nutrition 
Data: 16-05-2017  - 18:38 - 217 - Lipo Cut Hardcore 60 caps - Arnold Nutrition 
Data: 16-05-2017  - 18:38 - 218 - Lipo Cut X Hers 120caps - Arnold Nutrition 
Data: 16-05-2017  - 18:38 - 219 - Lipo Cut X 120caps - Arnold Nutrition 
Data: 16-05-2017  - 18:38 - 222 - Nitraflex 300g - Gat 
Data: 16-05-2017  - 18:38 - 224 - Oxylin Pro 90caps - Arnold Nutrition 
Data: 16-05-2017  - 18:38 - 225 - Perfect Whey 900g - Nature`s Best 
Data: 16-05-2017  - 18:38 - 226 - Power Crunch 12 unidades - BNRG 
Data: 16-05-2017  - 18:38 - 227 - Ripped Extreme Red 160caps - Atlhetica Nutrition 
Data: 16-05-2017  - 18:38 - 228 - Ripped Extreme Yellow 120caps - Atlhetica Nutrition 
Data: 16-05-2017  - 18:38 - 229 - Super Charge Extreme 800g - Labrada 
Data: 16-05-2017  - 18:38 - 230 - Super NO Expander 400g - Arnold Nutrition 
Data: 16-05-2017  - 18:38 - 231 - Thermo Fire Hardcore 120tbs - Arnold Nutrition 
Data: 16-05-2017  - 18:38 - 232 - Thermo Fire 120tbs - Arnold Nutrition 
Data: 16-05-2017  - 18:38 - 233 - VitaCa Óleo de Cártamo 120caps - Vitalab 
Data: 16-05-2017  - 18:38 - 234 - Vita Plate 60tbs - Arnold Nutrition 
Data: 16-05-2017  - 18:38 - 236 - Yellow Hornet 100caps - Stacker 2 
Data: 16-05-2017  - 18:38 - 237 - Zma Tst Booster 60caps - Arnold Nutrition 
Data: 16-05-2017  - 18:38 - 238 - Luva F1 - Rudel 
Data: 16-05-2017  - 18:38 - 239 - Luva F3 - Rudel 
Data: 16-05-2017  - 18:38 - 240 - Luva Sliper 2 - Rudel 
Data: 16-05-2017  - 18:38 - 241 - Luva Rubber - Rudel 
Data: 16-05-2017  - 18:38 - 242 - Luva NX - Rudel 
Data: 16-05-2017  - 18:38 - 243 - Luva KO - Rudel 
Data: 16-05-2017  - 18:38 - 244 - Cinturão Rudel Gladian 
Data: 16-05-2017  - 18:38 - 247 - Halter Strap - Rudel 
Data: 16-05-2017  - 18:38 - 248 - Tala Straps - Rudel 
Data: 16-05-2017  - 18:38 - 249 - Munhequeira - Rudel 
Data: 16-05-2017  - 18:38 - 250 - Luva Boxe 10 Oz - Rudel 
Data: 16-05-2017  - 18:38 - 251 - Luva Boxe 12 Oz - Rudel 
Data: 16-05-2017  - 18:38 - 252 - Luva Boxe 14 Oz - Rudel 
Data: 16-05-2017  - 18:38 - 253 - Luva Boxe 16 Oz - Rudel 
Data: 16-05-2017  - 18:38 - 254 - Protetor Bucal Dualcolor C/ Estojo - Rudel 
Data: 16-05-2017  - 18:38 - 255 - Protetor Bucal Dualcolor S/ Estojo - Rudel 
Data: 16-05-2017  - 18:38 - 256 - Protetor Bucal Duplo S/ Estojo - Rudel 
Data: 16-05-2017  - 18:38 - 257 - Protetor Bucal Duplo C/ Estojo - Rudel 
Data: 16-05-2017  - 18:38 - 258 - Protetor Bucal C/ Estojo - Rudel 
Data: 16-05-2017  - 18:38 - 259 - Protetor Bucal S/ Estojo - Rudel 
Data: 16-05-2017  - 18:38 - 260 - Bandagem Elastica Rudel 
Data: 16-05-2017  - 18:38 - 264 - Kit Resistência Muscular 
Data: 16-05-2017  - 18:38 - 265 - Colageno Hidrolisado 250g - Meissen 
Data: 16-05-2017  - 18:38 - 267 - Massa 3200 anticatabolic 3000g - Probiótica 
Data: 16-05-2017  - 18:38 - 268 - Creatina Creapure 150g - Probiótica 
Data: 16-05-2017  - 18:38 - 269 - Sbelt Whey Perfect Woman 900g - New Millen 
Data: 16-05-2017  - 18:38 - 270 - 3 Whey Protein 2Kg - Probiótica 
Data: 16-05-2017  - 18:38 - 271 - 100% Pure Whey Probiótica - 2Kg 
Data: 16-05-2017  - 18:38 - 275 - Oxylin Pro Powder 150g - Arnold Nutrition 
Data: 16-05-2017  - 18:38 - 276 - Oxylin Pro 7caps - Arnold Nutrition 
Data: 16-05-2017  - 18:38 - 277 - Glutamina Powder 600g - Optimum Nutrition 
Data: 16-05-2017  - 18:38 - 278 - Black Bee Cafeína 60caps - Probiótica 
Data: 16-05-2017  - 18:38 - 280 - Protein Complex Premium 1,8Kg + Coqueteleira grátis - New Millen 
Data: 16-05-2017  - 18:38 - 281 - Iso+ Whey Protein Isolada 900g - 4+ Nutrition 
Data: 16-05-2017  - 18:38 - 282 - Iron Whey Arnold Schwarzenegger Séries 900g - MusclePharm 
Data: 16-05-2017  - 18:38 - 283 - Glutamina Science Recovery 1000g - Performance 
Data: 16-05-2017  - 18:38 - 284 - Platinum Tri-celle CASEIN 1030g - Optimum Nutrition 
Data: 16-05-2017  - 18:38 - 285 - Gold Standard Whey 4,540g - Optimum Nutrition 
Data: 16-05-2017  - 18:38 - 286 - 1 MR Vortex 150g - BPI Sports 
Data: 16-05-2017  - 18:38 - 287 - Bcaa Complex 5050 Powder 300g Dymatize 
Data: 16-05-2017  - 18:38 - 288 - Amino Science BCAA Powder 300g - Performance 
Data: 16-05-2017  - 18:38 - 289 - Hiper Mass Gainer (3,0 Kg) - Atlhetica Evolution 
Data: 16-05-2017  - 18:38 - 290 - Omega3 1000mg Fish Oil 120caps - VitaminLife 
Data: 16-05-2017  - 18:38 - 291 - Zinco Chelado 90caps - VitaminLife 
Data: 16-05-2017  - 18:38 - 292 - Flaxseed Oil 1000mg Óleo linhaça 100caps - VitaminLife 
Data: 16-05-2017  - 18:38 - 293 - Evening Primose 500mg Oléo de Primula 45 caps - VitaminLife 
Data: 16-05-2017  - 18:38 - 294 - Triple EFA'S Ômegas 3 6 e 9 - 120caps - VitaminLife  
Data: 16-05-2017  - 18:38 - 295 - Testo HD 150g - Arnold Nutrition 
Data: 16-05-2017  - 18:38 - 296 - Perfect Vita Daily 120tbs - Nature's Best 
Data: 16-05-2017  - 18:38 - 297 - Lipo 6 Caffeine 60caps - Nutrex Research 
Data: 16-05-2017  - 18:38 - 298 - Vitamina C 1000 100 comprimidos - Sundown 
Data: 16-05-2017  - 18:38 - 299 - Vitamina E 400 100 comprimidos - Sundown 
Data: 16-05-2017  - 18:38 - 300 - Vitamia E 1000 30 comprimidos - Sundown 
Data: 16-05-2017  - 18:38 - 301 - Vitamina E 1000 50 comprimidos - Sundown 
Data: 16-05-2017  - 18:38 - 302 - OxyElite Pro 60caps - USP LABS   
Data: 16-05-2017  - 18:38 - 303 - B Complex 90caps - VitaminLife 
Data: 16-05-2017  - 18:38 - 304 - NOXI2 90tbs - Arnold Nutrition 
Data: 16-05-2017  - 18:38 - 305 - NOXI2 180tbs - Arnold Nutrition 
Data: 16-05-2017  - 18:38 - 306 - Gh Pro 100tbs - Arnold Nutrition 
Data: 16-05-2017  - 18:38 - 307 - Gh Pro 200tbs - Arnold Nutrition 
Data: 16-05-2017  - 18:38 - 308 - NO3 Beef 100tbs - Arnold Nutrition 
Data: 16-05-2017  - 18:38 - 309 - Chromium Picolinate 100caps - Universal 
Data: 16-05-2017  - 18:38 - 310 - Guaraná 120caps - Meissen 
Data: 16-05-2017  - 18:38 - 312 - Bcaa Concentrado AGE 120caps - Nutrilatina 
Data: 16-05-2017  - 18:38 - 313 - Bcaa Concentrado AGE 240caps - Nutrilatina 
Data: 16-05-2017  - 18:38 - 314 - Bcaa Ultraconcentrado AGE 120tbs - Nutrilatina 
Data: 16-05-2017  - 18:38 - 315 - Bcaa Ultraconcentrado AGE 240tbs - Nutrilatina 
Data: 16-05-2017  - 18:38 - 316 - Pro Bcaa Bound 60caps - Probiótica 
Data: 16-05-2017  - 18:38 - 318 - Power Bcaa 120caps - New Millen 
Data: 16-05-2017  - 18:38 - 319 - Pro Bcaa Bound 120caps - Probiótica 
Data: 16-05-2017  - 18:38 - 320 - Pro Bcaa Bound 200caps - Probiótica 
Data: 16-05-2017  - 18:38 - 321 - Bcaa Plus 800mg 120caps - Probiótica 
Data: 16-05-2017  - 18:38 - 322 - Bcaa Plus 800mg 240caps - Probiótica 
Data: 16-05-2017  - 18:38 - 323 - Brutal Force 240caps - New Millen 
Data: 16-05-2017  - 18:38 - 324 - Mass Beef Protein 1500g - New Millen 
Data: 16-05-2017  - 18:38 - 325 - Albumina 100% Natural 500g - New Millen 
Data: 16-05-2017  - 18:38 - 326 - Mass Beef Protein 3000g - New Millen 
Data: 16-05-2017  - 18:38 - 327 - Dextrose 1000g - New Millen 
Data: 16-05-2017  - 18:38 - 328 - Zma Cr 100caps - New Millen 
Data: 16-05-2017  - 18:38 - 329 - Beef Protein 900g - New Millen 
Data: 16-05-2017  - 18:38 - 332 - Albumina Maxxi 500g - New Millen 
Data: 16-05-2017  - 18:38 - 337 - AminoNO2 38000 Nitro 480ml - New Millen 
Data: 16-05-2017  - 18:38 - 338 - IGF 1 Hgh 150ml - New Millen  
Data: 16-05-2017  - 18:38 - 339 - Thermo Fuel 500ml - New Millen 
Data: 16-05-2017  - 18:38 - 340 - Leucine e Hmb Double 2000mg 120tbs - New Millen 
Data: 16-05-2017  - 18:38 - 341 - Creatina Ethyl Ester 60tbs - New Millen 
Data: 16-05-2017  - 18:38 - 342 - Iso Hydro Beef Protein 900g - New Millen 
Data: 16-05-2017  - 18:38 - 343 - L Carnetina Iron Man 500ml - New Millen 
Data: 16-05-2017  - 18:38 - 344 - Whey Protein Iron Man - 900g - New Millen 
Data: 16-05-2017  - 18:38 - 345 - Bcaa Powder Iron Man - 200g - New Millen 
Data: 16-05-2017  - 18:38 - 347 - Iron Man Instant Energy Gel 10 sachês - New Millen 
Data: 16-05-2017  - 18:38 - 349 - LipoFat Perfect Woman 120caps - New Millen  
Data: 16-05-2017  - 18:38 - 350 - Óleo de Peixe Ômega 3 60caps - New Millen 
Data: 16-05-2017  - 18:38 - 351 - Óleo de Primula 60caps - New Millen 
Data: 16-05-2017  - 18:38 - 352 - Sbelt Shake Diet 420g - New Millen 
Data: 16-05-2017  - 18:38 - 353 - Colageno em Pó 250g - New Millen 
Data: 16-05-2017  - 18:38 - 354 - Bcaa Power 4800 120tbs - New Millen 
Data: 16-05-2017  - 18:38 - 355 - Protein Complex Premium 900g - New Millen 
Data: 16-05-2017  - 18:38 - 358 - Kit Ganho de Peso 3 
Data: 16-05-2017  - 18:38 - 359 - Kit Definição Muscular 1 
Data: 16-05-2017  - 18:38 - 361 - Kit Ganho de Massa da Optimum Nutrition 
Data: 16-05-2017  - 18:38 - 362 - Bcaa Fix Darkness 300g - Integralmédica 
Data: 16-05-2017  - 18:38 - 363 - CarnPro 900g Probiotica  
Data: 16-05-2017  - 18:38 - 365 - Bcaa 5000 Powder 336g Optimum Nutrition 
Data: 16-05-2017  - 18:38 - 366 - Bcaa 1000 60caps Optimum Nutrition 
Data: 16-05-2017  - 18:38 - 367 - Isopure Low Carb (1361g) Natures Best 
Data: 16-05-2017  - 18:38 - 369 - Pasta Whey - Macarrão integral protéico 400g - Integralmédica 
Data: 16-05-2017  - 18:38 - 370 - Glutamina (300g) - Integralmédica 
Data: 16-05-2017  - 18:38 - 371 - Paleo Protein (921g) - MHP 
Data: 16-05-2017  - 18:38 - 372 - Coqueteleira três doses - Integralmédica 
Data: 16-05-2017  - 18:38 - 373 - Coqueteleira (450ml) duas doses - Integralmédica 
Data: 16-05-2017  - 18:38 - 375 - Alert 8-Hour - 100 tablets - MHP 
Data: 16-05-2017  - 18:38 - 376 - BCAA 3300 Timed Release - 120 tabletes - MHP 
Data: 16-05-2017  - 18:38 - 381 - Albumina 500gr - Nutraforce 
Data: 16-05-2017  - 18:38 - 385 - Bcaa 800mg 120caps - Nutraforce 
Data: 16-05-2017  - 18:38 - 386 - Creatina Pura Micronizada 150gr - Nutraforce 
Data: 16-05-2017  - 18:38 - 387 - Creatina Pura Micronizada 300gr - Nutraforce 
Data: 16-05-2017  - 18:38 - 388 - Glutamina Pura 150gr - Nutraforce 
Data: 16-05-2017  - 18:38 - 389 - Thermo Force Black 120caps - Nutraforce 
Data: 16-05-2017  - 18:38 - 390 - Iso 100 Hydrolyzed Whey 2,257g - Dymatize 
Data: 16-05-2017  - 18:38 - 391 - Mass Fort 3500 Hipercalórico 3kg - Nutraforce 
Data: 16-05-2017  - 18:38 - 392 - Mass Fort 3500 Hipercalórico 1,5kg - Nutraforce 
Data: 16-05-2017  - 18:38 - 393 - Whey Protein 100% Pure 900gr - Nutraforce 
Data: 16-05-2017  - 18:38 - 394 - Mass Fort 20000 Hipercalórico 3kg - Nutraforce 
Data: 16-05-2017  - 18:38 - 395 - Mass Fort 10000 Hipercalórico 1,5kg - Nutraforce 
Data: 16-05-2017  - 18:38 - 396 - Whey Protein Force (Refil) 500gr - Nutraforce 
Data: 16-05-2017  - 18:38 - 397 - Glutamina Pura 300gr - Nutraforce 
Data: 16-05-2017  - 18:38 - 398 - Nitro Force 270gr Advanced Pump - Nutraforce 
Data: 16-05-2017  - 18:38 - 399 - NO X-Force (AAKG + Taurina) 120caps - Nutraforce 
Data: 16-05-2017  - 18:38 - 400 - Isoforce Protein 900gr - Whey Isolado Nutraforce 
Data: 16-05-2017  - 18:38 - 401 - Multimax Complex 90caps - Max Titanium 
Data: 16-05-2017  - 18:38 - 402 - M-Tor Leucine 100gr - Max Titanium 
Data: 16-05-2017  - 18:38 - 403 - Mass Titanium 17500 (3000g) - Max Titanium 
Data: 16-05-2017  - 18:38 - 404 - Total Whey NO2 2000g - Max Titanium 
Data: 16-05-2017  - 18:38 - 405 - Top Whey 3W 900g - Max Titanium 
Data: 16-05-2017  - 18:38 - 406 - Isofusion Premium Whey Isolate (726g) - Gaspari Nutrition 
Data: 16-05-2017  - 18:38 - 407 - Isofusion Premium Whey Isolate (1364g)- Gaspari Nutrition 
Data: 16-05-2017  - 18:38 - 408 - Myofusion Elite Protein Series 907gr - Gaspari Nutrition 
Data: 16-05-2017  - 18:38 - 409 - Super Pump 3.0 457gr - Gaspari Nutrition 
Data: 16-05-2017  - 18:38 - 410 - AminoLast 420gr - Gaspari Nutrition 
Data: 16-05-2017  - 18:38 - 411 - Matrix 2.0 907gr - Syntrax 
Data: 16-05-2017  - 18:38 - 412 - Nectar 907gr - Syntrax 
Data: 16-05-2017  - 18:38 - 413 - MyoFusion Advanced Protein 907gr - Gaspari Nutrition 
Data: 16-05-2017  - 18:38 - 414 - Zma 90caps  - Now Food 
Data: 16-05-2017  - 18:38 - 415 - 3 Whey Protein Force 900gr - Nutraforce 
Data: 16-05-2017  - 18:38 - 416 - 100% Pura Batata Doce Refil (1Kg) - Atlhetica Nutrition 
Data: 16-05-2017  - 18:38 - 417 - Methyldrene 25 - Cloma Pharma 
Data: 16-05-2017  - 18:38 - 418 - X TEA (20 sticks) - Atlhetica Nutrition 
Data: 16-05-2017  - 18:38 - 419 - L-Carnitine 2300 (480ml) - Atlhetica Evolution 
Data: 16-05-2017  - 18:38 - 420 - Whey Protein Pro Series Refil (1,8Kg) - Atlhetica Nutrition  
Data: 16-05-2017  - 18:38 - 421 - 4 Whey Tech - Evolution Series - (907g) 
Data: 16-05-2017  - 18:38 - 422 - FIRST Pasta de Amendoim com Whey Protein 500g - Santa Helena 
Data: 16-05-2017  - 18:38 - 423 - 4 Whey Tech - Refil - 1800g - Atlhetica Nutrition 
Data: 16-05-2017  - 18:38 - 424 - Top Whey Protein 3W Refil (1,8Kg) - MAX Titanium 
Data: 16-05-2017  - 18:38 - 425 - AmendoWhey 400gr - New Millen 
Data: 16-05-2017  - 18:38 - 426 - Energy Now 60 cápsulas - Atlhetica Nutrition 
Data: 16-05-2017  - 18:38 - 427 - Beta HD Extreme Intense (180g) - Atlhetica Nutrition 
Data: 16-05-2017  - 18:38 - 428 - Caffeinex 420mg (60 caps) - Atlhetica Nutrition 
Data: 16-05-2017  - 18:38 - 429 - Ella Collagen Caps (120 caps) - Atlhetica Nutrition 
Data: 16-05-2017  - 18:38 - 430 - Protein Premium Refil (1,8Kg) - Atlhetica Nutrition 
Data: 16-05-2017  - 18:38 - 431 - Dilatech (160 cáp) - Atlhetica Nutrition 
Data: 16-05-2017  - 18:38 - 432 - Kit Aumento de Massa Muscular I 
Data: 16-05-2017  - 18:38 - 433 - Kit Aumento de Massa Muscular II 
Data: 16-05-2017  - 18:38 - 434 - Kit Aumento de Massa Muscular III 
Data: 16-05-2017  - 18:38 - 435 - Kit Aumento de Massa Muscular IV 
Data: 16-05-2017  - 18:38 - 436 - Kit Ganho de Peso IV 
Data: 16-05-2017  - 18:38 - 438 - 100% Pure Waxy Maize Refil (1Kg) - Atlhetica Nutrition 
Data: 16-05-2017  - 18:38 - 439 - 100% Pure Waxy Maize (2Kg) - Atlhetica Nutrition 
Data: 16-05-2017  - 18:38 - 440 - Cramp Block - Endurance Series (60 cápsulas) - Atlhetica Nutrition 
Data: 16-05-2017  - 18:38 - 441 - L-Carnitine 1000 (60 tabletes) - Atlhetica Nutrition 
Data: 16-05-2017  - 18:38 - 442 - 100% Pure Casein Protein (900g) - Atlhetica Nutrition 
Data: 16-05-2017  - 18:38 - 443 - Glutamine Micronized (1Kg) - Dymatize Nutrition 
Data: 16-05-2017  - 18:38 - 444 - Glutamine Micronized (300g) - Dymatize Nutrition 
Data: 16-05-2017  - 18:38 - 445 - Bcaa Complex 5050 (300g) - Dymatize Nutrition 
Data: 16-05-2017  - 18:38 - 446 - Elasti Joint (350g) - Labrada 
Data: 16-05-2017  - 18:38 - 448 - Barra de proteína - Trio Pro 30 Vit (24 unidades) 
Data: 16-05-2017  - 18:38 - 449 - VO2 Barra de proteína (12 unidades) - Integralmédica 
Data: 16-05-2017  - 18:38 - 450 - W-Lady (907g) - Integralmedica 
Data: 16-05-2017  - 18:38 - 451 - Creatina Micronizada Monohidratada (300g) - Atlhetica Nutrition 
Data: 16-05-2017  - 18:38 - 452 - LA Linoleic Acid (120 cápsulas) - Atlhetica Nutrition 
Data: 16-05-2017  - 18:38 - 453 - Complete Multi-Vit (100 tabletes) - Atlhetica Nutrition 
Data: 16-05-2017  - 18:38 - 454 - Coqueteleira com Blender (600ml) - Integralmédica 
Data: 16-05-2017  - 18:38 - 455 - Coqueteleira Rosa Duas Doses (400ml) - Integralmédica 
Data: 16-05-2017  - 18:38 - 456 - Coqueteleira Neon Blender (600ml) - Atlhetica Nutrition 
Data: 16-05-2017  - 18:38 - 457 - Iso-X (907g) - Integralmédica 
Data: 16-05-2017  - 18:38 - 458 - Bcaa 2400 (100 cápsulas) - Max Titanium 
Data: 16-05-2017  - 18:38 - 459 - Bcaa 2400 (200 cápsulas) - Max Titanium 
Data: 16-05-2017  - 18:38 - 460 - Bcaa Fix Darkness (240 tabletes) - Integralmédica 
Data: 16-05-2017  - 18:38 - 461 - Kit Ganho de Peso 5 
Data: 16-05-2017  - 18:38 - 462 - Collagen Diet (200g) - Atlhetica Nutrition 
Data: 16-05-2017  - 18:38 - 463 - Maltodextrina 1Kg - Atlhetica Nutrition 
Data: 16-05-2017  - 18:38 - 464 - Carnivor Protein Bar Unidade (91g) - Muscle Meds 
Data: 16-05-2017  - 18:38 - 465 - Protein Crisp Bar (Caixa com 12 unidades) - Integralmedica 
Data: 16-05-2017  - 18:38 - 466 - Choko Crunch Protein Meio Amargo Unidade (40g) - Probiótica 
Data: 16-05-2017  - 18:38 - 467 - Repor Salt (30 cápsulas) - Atlhetica Nutrition 
Data: 16-05-2017  - 18:38 - 468 - Bcaa Powder 2:1:1 (210g) - Atlhetica Nutrition 
Data: 16-05-2017  - 18:38 - 469 - Proplex (1,020Kg) - Atlhetica Nutrition 
Data: 16-05-2017  - 18:38 - 470 - Noxi Fusion (1100g) - Arnold Nutrition 
Data: 16-05-2017  - 18:38 - 471 - Super 3W Whey Protein - Integralmédica 
Data: 16-05-2017  - 18:38 - 472 - L-Carn Liquid (480ml) - Integralmedica 
Data: 16-05-2017  - 18:38 - 473 - Waximaize Energy (1,5Kg) - Integralmédica 
Data: 16-05-2017  - 18:38 - 474 - Colágeno (120 cápsulas) - Meissen 
Data: 16-05-2017  - 18:38 - 475 - Bcaa Science 500mg (200 tabletes mastigáveis) - Performance 
Data: 16-05-2017  - 18:38 - 476 - Bcaa Powder 2:1:1 (210g) - Atlhetica Nutrition  
Data: 16-05-2017  - 18:38 - 478 - Glutamax (20 sachês) - Vitafor 
Data: 16-05-2017  - 18:38 - 479 - Blend Whey (900g) - Vitafor 
Data: 16-05-2017  - 18:38 - 480 - Colagentek (Colágeno Hidrolisado) 30 sachês - Vitafor 
Data: 16-05-2017  - 18:38 - 481 - Collagen Liquid 474ml (Colágeno Hidrolisado) - Performance 
Data: 16-05-2017  - 18:38 - 483 - Femini Whey Protein (900g) - Max Titanium 
Data: 16-05-2017  - 18:38 - 484 - Power Crunch Protein Bar (Unidade) - BNRG 
Data: 16-05-2017  - 18:38 - 485 - Puro Whey 909g - Performance Nutrition 
Data: 16-05-2017  - 18:38 - 487 - Arnold 3D (300g) - Arnold Nutrition 
Data: 16-05-2017  - 18:38 - 488 - Caffeinex 420mg (60 cápsulas) - Atlhetica Nutrition 
Data: 16-05-2017  - 18:38 - 489 - Lipodrene (100 cápsulas) - Hi-Tech Pharmaceuticals 
Data: 16-05-2017  - 18:38 - 490 - Jet Fuel (120 cápsulas) - Gat 
Data: 16-05-2017  - 18:38 - 491 - Micellar (907g) - Syntrax 
Data: 16-05-2017  - 18:38 - 492 - Whey Shake (2270g) - Syntrax 
Data: 16-05-2017  - 18:38 - 493 - Ribose Powder (300g) - Performance 
Data: 16-05-2017  - 18:38 - 494 - Xtherm Black (60 cápsulas) - Probiótica 
Data: 16-05-2017  - 18:38 - 495 - Shred Thermax Science (90 tabletes) - Performance Nutrition 
Data: 16-05-2017  - 18:38 - 496 - Choco Cream Super Protein (24 unidades) - Trio 
Data: 16-05-2017  - 18:38 - 498 - L-Carnitine 1400 (480ml) - Atlhetica Nutrition 
Data: 16-05-2017  - 18:38 - 499 - Nutwhey - Creme de Avelã Proteico (200g) - Integralmédica 
Data: 16-05-2017  - 18:38 - 500 - ZMA (90 cápsulas) - Atlhetica Nutrition 
Data: 16-05-2017  - 18:38 - 501 - Bcaa 2 1 1 (210g) - Atlhetica Nutrition 
Data: 16-05-2017  - 18:38 - 502 - Bcaa Chewable Mastigável (200 tabletes) - Probiótica 
Data: 16-05-2017  - 18:38 - 503 - Ultrum Multivitamínico Mineral (100 tabletes) - Performence 
Data: 16-05-2017  - 18:38 - 504 - Pasta de Amendoim Integral Crocante (1kg) - El Shaddai 
Data: 16-05-2017  - 18:38 - 505 - Galão Body Size (2,2 litros) - Integralmédica 
Data: 16-05-2017  - 18:38 - 506 - Luva Palmex - Rudel 
Data: 16-05-2017  - 18:38 - 507 - BCAA Pro Series (120 cáp.) - Atlhetica Nutrition 
Data: 16-05-2017  - 18:38 - 508 - Barra de Proteína Quest Bar (60g) - Quest Nutrition 
Data: 16-05-2017  - 18:38 - 509 - Protein Crisp Bar (45g) - Integralmédica 
Data: 16-05-2017  - 18:38 - 510 - Whey Bar (40g) - Probiótica 
Data: 16-05-2017  - 18:38 - 511 - Zma Pro (90 cápsulas) - Universal Nutrition 
Data: 16-05-2017  - 18:38 - 512 - Bcaa Premium Series (120 tabletes) - New Millen 
Data: 16-05-2017  - 18:38 - 513 - Creatina  Titanium (300g) - Max Titanium 
Data: 16-05-2017  - 18:38 - 514 - Monster Extreme Black (22 Packs) - Probiótica 
Data: 16-05-2017  - 18:38 - 515 - Pasta de Amendoim Integral (1,05Kg) - Power One 
Data: 16-05-2017  - 18:38 - 516 - Pepto Fuel Hidrowhey (909g) - Performance 
Data: 16-05-2017  - 18:38 - 517 - Pasta de Amendoim Integral (com granulado de amendoim) 1,05Kg - Power One   
Data: 16-05-2017  - 18:38 - 518 - Nitric Max Amino Science (180 tabletes) - Performance 
Data: 16-05-2017  - 18:38 - 519 - Palatinose (300g) - Max Titanium 
Data: 16-05-2017  - 18:38 - 520 - BCAA 2:1:1 Premium (210g)  - New Millen 
Data: 16-05-2017  - 18:38 - 521 - Bio Whey Protein (909g) - Performance 
Data: 16-05-2017  - 18:38 - 522 - Sineflex (150 cáp) - Power Supplements 
Data: 16-05-2017  - 18:38 - 523 - Dilatex (152 cáps) - Power Supplements 
Data: 16-05-2017  - 18:38 - 525 - Berinjela (120 cápsulas) - Meissen 
Data: 16-05-2017  - 18:38 - 526 - Platinum BCAA 8:1:1 (200 tabletes) - Muscletech 
Data: 16-05-2017  - 18:38 - 527 - Platinum 100% Whey (907g) - Muscletech 
Data: 16-05-2017  - 18:38 - 528 - Pasta de amendoim com açúcar de coco (500g) - Power One 
Data: 16-05-2017  - 18:38 - 529 - Brigadeiro Proteico (500g) - Power One 
Data: 16-05-2017  - 18:38 - 530 - Natural Vegan (500g) - Max Titanium 
Data: 16-05-2017  - 18:38 - 531 - A-Bomb (243g) -MHP 
Data: 16-05-2017  - 18:38 - 532 - T_SEK 
Data: 16-05-2017  - 18:38 - 533 - Kit Emagrecedor Sineflex + T_Sek 
Data: 16-05-2017  - 18:38 - 534 - Kit Emagrecimento Feminino Atlhetica 
Data: 16-05-2017  - 18:38 - 535 - Leucina (150g) - Probiótica 
Data: 16-05-2017  - 18:38 - 536 - Kit Emagrecimento Feminino New Millen 
Data: 16-05-2017  - 18:38 - 537 - Somatodrol (30 comprimidos) - Iridium Labs 
Data: 16-05-2017  - 18:38 - 538 - Diurox (148g) - New Millen 
Data: 16-05-2017  - 18:38 - 539 - Maca Peruana (180 cáp.) - Nutrigold 
Data: 16-05-2017  - 18:38 - 540 - ZMA (90 Cápsulas) - Max Titanium 
Data: 16-05-2017  - 18:38 - 541 - Whey Pro (1Kg) - Max Titanium 
Data: 16-05-2017  - 18:38 - 542 - Sineflex Hardcore (150 cáp.) - Power Supplements 
Data: 16-05-2017  - 18:38 - 543 - Super Whey 100% Pure Refil 907g - Integralmédica 
Data: 16-05-2017  - 18:38 - 544 - Lipodrol Black (60 cáp.) - Integralmédica 
Data: 16-05-2017  - 18:38 - 545 - Creatina Titanium 150g - Max Titanium 
Data: 16-05-2017  - 18:38 - 546 - Kimera Termogênico (60 cápsulas) - Iridium Labs 
Data: 16-05-2017  - 18:38 - 547 - Bcaa Premium Series 240tbs - New Millen 
Data: 16-05-2017  - 18:38 - 548 - Nitro Tech 100% Whey Gold (1.13Kg) - Muscletech 
Data: 16-05-2017  - 18:38 - 549 - Black Bullet 60 cápsulas - Integralmédica 
Data: 16-05-2017  - 18:38 - 550 - Oxydrol (120 cápsulas) - Integralmédica 
Data: 16-05-2017  - 18:38 - 551 - Óleo de Coco Extravirgem 500ml - Copra 
Data: 16-05-2017  - 18:38 - 552 - Combo Massa Muscular Premium  
Data: 16-05-2017  - 18:38 - 553 - Combo Ganho de Peso Nutraforce 
Data: 16-05-2017  - 18:38 - 554 - Combo Max Ganho de Peso 
Data: 16-05-2017  - 18:38 - 555 - Combo Integral Ganho de Massa Muscular 
Data: 16-05-2017  - 18:38 - 556 - Coqueteleira Nutraforce (600ml) 
Data: 16-05-2017  - 18:38 - 557 - Combo Probiótica Massa Muscular 
Data: 16-05-2017  - 18:38 - 558 - Combo Emagrecimento + Definição 
Data: 16-05-2017  - 18:38 - 559 - Bcaa Drink 4:1:1 (280g) - Max Titanium 
Data: 16-05-2017  - 18:38 - 560 - Creatina (300g) Black Line - Optimum Nutrition 
Data: 16-05-2017  - 18:38 - 561 - Cloreto de magnésio P.A. (120 cápsulas) - Meissen 
Data: 16-05-2017  - 18:38 - 562 - Creatina Black Line (150g) - Optimum Nutrition 
Data: 16-05-2017  - 18:38 - 563 - Combo Ganho de Peso New Millen 
Data: 16-05-2017  - 18:38 - 564 - Combo Auxilio Ganho de Massa Muscular 
Data: 16-05-2017  - 18:38 - 565 - Combo Auxílio Ganho de Massa Muscular 
